compute_unit_full_tb_transcript.txt
# /home/polar/ProtoTracer-FPGA-FrontEND
# /home/polar/ProtoTracer-FPGA-FrontEND/ip/compute unit
# Model Technology ModelSim - Intel FPGA Edition vlog 2020.1 Compiler 2020.02 Feb 28 2020
# Start time: 01:51:31 on Jan 11,2026
# vlog -sv -work work /home/polar/ProtoTracer-FPGA-FrontEND/ip/compute unit/isa_pkg.sv 
# -- Compiling package isa_pkg
# 
# Top level modules:
# 	--none--
# End time: 01:51:31 on Jan 11,2026, Elapsed time: 0:00:00
# Errors: 0, Warnings: 0
# /home/polar/ProtoTracer-FPGA-FrontEND/ip/compute unit/csr_file.sv
# /home/polar/ProtoTracer-FPGA-FrontEND/ip/compute unit/scoreboard.sv
# /home/polar/ProtoTracer-FPGA-FrontEND/ip/compute unit/fetch_unit.sv
# /home/polar/ProtoTracer-FPGA-FrontEND/ip/compute unit/local_mem_banked.sv
# /home/polar/ProtoTracer-FPGA-FrontEND/ip/compute unit/regfile_vector.sv
# /home/polar/ProtoTracer-FPGA-FrontEND/ip/compute unit/compute_unit_top.sv
# /home/polar/ProtoTracer-FPGA-FrontEND/ip/compute unit/regfile_fp.sv
# /home/polar/ProtoTracer-FPGA-FrontEND/ip/compute unit/icache.sv
# /home/polar/ProtoTracer-FPGA-FrontEND/ip/compute unit/decoder.sv
# /home/polar/ProtoTracer-FPGA-FrontEND/ip/compute unit/graphics_pipeline.sv
# /home/polar/ProtoTracer-FPGA-FrontEND/ip/compute unit/regfile_scalar.sv
# /home/polar/ProtoTracer-FPGA-FrontEND/ip/compute unit/isa_pkg.sv
# /home/polar/ProtoTracer-FPGA-FrontEND/ip/compute unit/write_merge_buf.sv
# /home/polar/ProtoTracer-FPGA-FrontEND/ip/compute unit/gpipe_dispatcher.sv
# /home/polar/ProtoTracer-FPGA-FrontEND/ip/compute unit/texture_cache.sv
# /home/polar/ProtoTracer-FPGA-FrontEND/ip/compute unit/rop_unit.sv
# /home/polar/ProtoTracer-FPGA-FrontEND/ip/compute unit/raster_unit.sv
# /home/polar/ProtoTracer-FPGA-FrontEND/ip/compute unit/alu_scalar.sv
# /home/polar/ProtoTracer-FPGA-FrontEND/ip/compute unit/lsu.sv
# /home/polar/ProtoTracer-FPGA-FrontEND/ip/compute unit/alu_vector.sv
# /home/polar/ProtoTracer-FPGA-FrontEND/ip/compute unit/agu.sv
# /home/polar/ProtoTracer-FPGA-FrontEND/ip/compute unit/fp_alu.sv
# /home/polar/ProtoTracer-FPGA-FrontEND/ip/compute unit/csr_file.sv
# /home/polar/ProtoTracer-FPGA-FrontEND/ip/compute unit/scoreboard.sv
# /home/polar/ProtoTracer-FPGA-FrontEND/ip/compute unit/fetch_unit.sv
# /home/polar/ProtoTracer-FPGA-FrontEND/ip/compute unit/local_mem_banked.sv
# /home/polar/ProtoTracer-FPGA-FrontEND/ip/compute unit/regfile_vector.sv
# /home/polar/ProtoTracer-FPGA-FrontEND/ip/compute unit/compute_unit_top.sv
# /home/polar/ProtoTracer-FPGA-FrontEND/ip/compute unit/regfile_fp.sv
# /home/polar/ProtoTracer-FPGA-FrontEND/ip/compute unit/icache.sv
# /home/polar/ProtoTracer-FPGA-FrontEND/ip/compute unit/decoder.sv
# /home/polar/ProtoTracer-FPGA-FrontEND/ip/compute unit/graphics_pipeline.sv
# /home/polar/ProtoTracer-FPGA-FrontEND/ip/compute unit/regfile_scalar.sv
# /home/polar/ProtoTracer-FPGA-FrontEND/ip/compute unit/write_merge_buf.sv
# /home/polar/ProtoTracer-FPGA-FrontEND/ip/compute unit/gpipe_dispatcher.sv
# /home/polar/ProtoTracer-FPGA-FrontEND/ip/compute unit/texture_cache.sv
# /home/polar/ProtoTracer-FPGA-FrontEND/ip/compute unit/rop_unit.sv
# /home/polar/ProtoTracer-FPGA-FrontEND/ip/compute unit/raster_unit.sv
# /home/polar/ProtoTracer-FPGA-FrontEND/ip/compute unit/alu_scalar.sv
# /home/polar/ProtoTracer-FPGA-FrontEND/ip/compute unit/lsu.sv
# /home/polar/ProtoTracer-FPGA-FrontEND/ip/compute unit/alu_vector.sv
# /home/polar/ProtoTracer-FPGA-FrontEND/ip/compute unit/agu.sv
# /home/polar/ProtoTracer-FPGA-FrontEND/ip/compute unit/fp_alu.sv
# Model Technology ModelSim - Intel FPGA Edition vlog 2020.1 Compiler 2020.02 Feb 28 2020
# Start time: 01:51:31 on Jan 11,2026
# vlog -sv -work work /home/polar/ProtoTracer-FPGA-FrontEND/ip/compute unit/csr_file.sv /home/polar/ProtoTracer-FPGA-FrontEND/ip/compute unit/scoreboard.sv /home/polar/ProtoTracer-FPGA-FrontEND/ip/compute unit/fetch_unit.sv /home/polar/ProtoTracer-FPGA-FrontEND/ip/compute unit/local_mem_banked.sv /home/polar/ProtoTracer-FPGA-FrontEND/ip/compute unit/regfile_vector.sv /home/polar/ProtoTracer-FPGA-FrontEND/ip/compute unit/compute_unit_top.sv /home/polar/ProtoTracer-FPGA-FrontEND/ip/compute unit/regfile_fp.sv /home/polar/ProtoTracer-FPGA-FrontEND/ip/compute unit/icache.sv /home/polar/ProtoTracer-FPGA-FrontEND/ip/compute unit/decoder.sv /home/polar/ProtoTracer-FPGA-FrontEND/ip/compute unit/graphics_pipeline.sv /home/polar/ProtoTracer-FPGA-FrontEND/ip/compute unit/regfile_scalar.sv /home/polar/ProtoTracer-FPGA-FrontEND/ip/compute unit/write_merge_buf.sv /home/polar/ProtoTracer-FPGA-FrontEND/ip/compute unit/gpipe_dispatcher.sv /home/polar/ProtoTracer-FPGA-FrontEND/ip/compute unit/texture_cache.sv /home/polar/ProtoTracer-FPGA-FrontEND/ip/compute unit/rop_unit.sv /home/polar/ProtoTracer-FPGA-FrontEND/ip/compute unit/raster_unit.sv /home/polar/ProtoTracer-FPGA-FrontEND/ip/compute unit/alu_scalar.sv /home/polar/ProtoTracer-FPGA-FrontEND/ip/compute unit/lsu.sv /home/polar/ProtoTracer-FPGA-FrontEND/ip/compute unit/alu_vector.sv /home/polar/ProtoTracer-FPGA-FrontEND/ip/compute unit/agu.sv /home/polar/ProtoTracer-FPGA-FrontEND/ip/compute unit/fp_alu.sv /home/polar/ProtoTracer-FPGA-FrontEND/testbench/compute_unit_full_tb.sv 
# -- Compiling module csr_file
# -- Compiling module scoreboard
# -- Compiling module fetch_unit
# -- Compiling module local_mem_banked
# -- Compiling module regfile_vector
# -- Compiling module compute_unit_top
# -- Importing package isa_pkg
# -- Compiling module regfile_fp
# -- Compiling module icache
# -- Compiling module decoder
# -- Compiling module graphics_pipeline
# ** Warning: /home/polar/ProtoTracer-FPGA-FrontEND/ip/compute unit/graphics_pipeline.sv(8): (vlog-13314) Defaulting port 'issue_ctrl' kind to 'var' rather than 'wire' due to default compile option setting of -svinputport=relaxed.
# -- Compiling module regfile_scalar
# -- Compiling module write_merge_buf
# -- Compiling module gpipe_dispatcher
# ** Warning: /home/polar/ProtoTracer-FPGA-FrontEND/ip/compute unit/gpipe_dispatcher.sv(5): (vlog-13314) Defaulting port 'ctrl' kind to 'var' rather than 'wire' due to default compile option setting of -svinputport=relaxed.
# -- Compiling module texture_cache
# -- Compiling module rop_unit
# -- Compiling module raster_unit
# -- Compiling module alu_scalar
# -- Compiling module lsu
# -- Compiling module alu_vector
# -- Compiling module agu
# -- Compiling module fp_alu
# -- Compiling module compute_unit_full_tb
# 
# Top level modules:
# 	icache
# 	gpipe_dispatcher
# 	compute_unit_full_tb
# End time: 01:51:31 on Jan 11,2026, Elapsed time: 0:00:00
# Errors: 0, Warnings: 2
# vsim -c -t 1ns work.compute_unit_full_tb 
# Start time: 01:51:31 on Jan 11,2026
# Loading sv_std.std
# Loading work.isa_pkg
# Loading work.compute_unit_full_tb
# Loading work.compute_unit_top
# Loading work.graphics_pipeline
# Loading work.raster_unit
# Loading work.rop_unit
# Loading work.fetch_unit
# Loading work.decoder
# Loading work.scoreboard
# Loading work.regfile_scalar
# Loading work.regfile_fp
# Loading work.regfile_vector
# Loading work.agu
# Loading work.alu_scalar
# Loading work.fp_alu
# Loading work.alu_vector
# Loading work.texture_cache
# Loading work.local_mem_banked
# Loading work.csr_file
# Loading work.lsu
# Loading work.write_merge_buf
# 56 cyc=1 pc=00000000 if_valid=1 inst0=8000008b d0_valid=1 stall_sb0=0 sb.stall0=0 issue0=1 accept0=1 stall_issue=0 rs1=0(rs1c=0) rs2=0(rs2c=0) rd=1(rdc=0) u1=1 u2=0 urd=1
# 56   manual_stall0=0 (rs1_busy=0 rs2_busy=0 rd_busy=0)
# 66 cyc=2 pc=00000000 if_valid=1 inst0=8000008b d0_valid=1 stall_sb0=1 sb.stall0=1 issue0=1 accept0=0 stall_issue=1 rs1=0(rs1c=0) rs2=0(rs2c=0) rd=1(rdc=0) u1=1 u2=0 urd=1
# 66   manual_stall0=1 (rs1_busy=0 rs2_busy=0 rd_busy=1)
# 66   SB busy_s(2,3,4)=000 busy_f(2,3,4)=000 busy_v(2,3,4)=000
# 76 cyc=3 pc=00000000 if_valid=1 inst0=8000008b d0_valid=1 stall_sb0=1 sb.stall0=1 issue0=1 accept0=0 stall_issue=1 rs1=0(rs1c=0) rs2=0(rs2c=0) rd=1(rdc=0) u1=1 u2=0 urd=1
# 76   manual_stall0=1 (rs1_busy=0 rs2_busy=0 rd_busy=1)
# 76   SB busy_s(2,3,4)=000 busy_f(2,3,4)=000 busy_v(2,3,4)=000
# 86 cyc=4 pc=00000000 if_valid=1 inst0=8000008b d0_valid=1 stall_sb0=1 sb.stall0=1 issue0=1 accept0=0 stall_issue=1 rs1=0(rs1c=0) rs2=0(rs2c=0) rd=1(rdc=0) u1=1 u2=0 urd=1
# 86   manual_stall0=1 (rs1_busy=0 rs2_busy=0 rd_busy=1)
# 86   SB busy_s(2,3,4)=000 busy_f(2,3,4)=000 busy_v(2,3,4)=000
# 96 cyc=5 pc=00000000 if_valid=1 inst0=8000008b d0_valid=1 stall_sb0=1 sb.stall0=1 issue0=1 accept0=0 stall_issue=1 rs1=0(rs1c=0) rs2=0(rs2c=0) rd=1(rdc=0) u1=1 u2=0 urd=1
# 96   manual_stall0=1 (rs1_busy=0 rs2_busy=0 rd_busy=1)
# 96   SB busy_s(2,3,4)=000 busy_f(2,3,4)=000 busy_v(2,3,4)=000
# 96   WB.S rd=1 data=fffff800
# 106 cyc=6 pc=00000000 if_valid=1 inst0=8000008b d0_valid=1 stall_sb0=0 sb.stall0=0 issue0=1 accept0=1 stall_issue=0 rs1=0(rs1c=0) rs2=0(rs2c=0) rd=1(rdc=0) u1=1 u2=0 urd=1
# 106   manual_stall0=0 (rs1_busy=0 rs2_busy=0 rd_busy=0)
# 116 cyc=7 pc=00000004 if_valid=1 inst0=0050010b d0_valid=1 stall_sb0=0 sb.stall0=0 issue0=1 accept0=1 stall_issue=0 rs1=0(rs1c=0) rs2=5(rs2c=0) rd=2(rdc=0) u1=1 u2=0 urd=1
# 116   manual_stall0=0 (rs1_busy=0 rs2_busy=0 rd_busy=0)
# 126 cyc=8 pc=00000008 if_valid=1 inst0=0070018b d0_valid=1 stall_sb0=0 sb.stall0=0 issue0=1 accept0=1 stall_issue=0 rs1=0(rs1c=0) rs2=7(rs2c=0) rd=3(rdc=0) u1=1 u2=0 urd=1
# 126   manual_stall0=0 (rs1_busy=0 rs2_busy=0 rd_busy=0)
# 136 cyc=9 pc=0000000c if_valid=1 inst0=0031020b d0_valid=1 stall_sb0=1 sb.stall0=1 issue0=1 accept0=0 stall_issue=1 rs1=2(rs1c=0) rs2=3(rs2c=0) rd=4(rdc=0) u1=1 u2=1 urd=1
# 136   manual_stall0=1 (rs1_busy=1 rs2_busy=1 rd_busy=0)
# 136   SB busy_s(2,3,4)=110 busy_f(2,3,4)=000 busy_v(2,3,4)=000
# 146 cyc=10 pc=0000000c if_valid=1 inst0=0031020b d0_valid=1 stall_sb0=1 sb.stall0=1 issue0=1 accept0=0 stall_issue=1 rs1=2(rs1c=0) rs2=3(rs2c=0) rd=4(rdc=0) u1=1 u2=1 urd=1
# 146   manual_stall0=1 (rs1_busy=1 rs2_busy=1 rd_busy=0)
# 146   SB busy_s(2,3,4)=110 busy_f(2,3,4)=000 busy_v(2,3,4)=000
# 146   WB.S rd=1 data=fffff800
# 156 cyc=11 pc=0000000c if_valid=1 inst0=0031020b d0_valid=1 stall_sb0=1 sb.stall0=1 issue0=1 accept0=0 stall_issue=1 rs1=2(rs1c=0) rs2=3(rs2c=0) rd=4(rdc=0) u1=1 u2=1 urd=1
# 156   manual_stall0=1 (rs1_busy=1 rs2_busy=1 rd_busy=0)
# 156   SB busy_s(2,3,4)=110 busy_f(2,3,4)=000 busy_v(2,3,4)=000
# 156   WB.S rd=2 data=00000005
# 166 cyc=12 pc=0000000c if_valid=1 inst0=0031020b d0_valid=1 stall_sb0=1 sb.stall0=1 issue0=1 accept0=0 stall_issue=1 rs1=2(rs1c=0) rs2=3(rs2c=0) rd=4(rdc=0) u1=1 u2=1 urd=1
# 166   manual_stall0=1 (rs1_busy=0 rs2_busy=1 rd_busy=0)
# 166   SB busy_s(2,3,4)=010 busy_f(2,3,4)=000 busy_v(2,3,4)=000
# 166   WB.S rd=3 data=00000007
# 176 cyc=13 pc=0000000c if_valid=1 inst0=0031020b d0_valid=1 stall_sb0=0 sb.stall0=0 issue0=1 accept0=1 stall_issue=0 rs1=2(rs1c=0) rs2=3(rs2c=0) rd=4(rdc=0) u1=1 u2=1 urd=1
# 176   manual_stall0=0 (rs1_busy=0 rs2_busy=0 rd_busy=0)
# 186 cyc=14 pc=00000010 if_valid=1 inst0=0040a00d d0_valid=1 stall_sb0=1 sb.stall0=1 issue0=1 accept0=0 stall_issue=1 rs1=1(rs1c=0) rs2=4(rs2c=0) rd=0(rdc=0) u1=1 u2=1 urd=0
# 186   manual_stall0=1 (rs1_busy=0 rs2_busy=1 rd_busy=0)
# 186   SB busy_s(2,3,4)=001 busy_f(2,3,4)=000 busy_v(2,3,4)=000
# 196 cyc=15 pc=00000010 if_valid=1 inst0=0040a00d d0_valid=1 stall_sb0=1 sb.stall0=1 issue0=1 accept0=0 stall_issue=1 rs1=1(rs1c=0) rs2=4(rs2c=0) rd=0(rdc=0) u1=1 u2=1 urd=0
# 196   manual_stall0=1 (rs1_busy=0 rs2_busy=1 rd_busy=0)
# 196   SB busy_s(2,3,4)=001 busy_f(2,3,4)=000 busy_v(2,3,4)=000
# 206 cyc=16 pc=00000010 if_valid=1 inst0=0040a00d d0_valid=1 stall_sb0=1 sb.stall0=1 issue0=1 accept0=0 stall_issue=1 rs1=1(rs1c=0) rs2=4(rs2c=0) rd=0(rdc=0) u1=1 u2=1 urd=0
# 206   manual_stall0=1 (rs1_busy=0 rs2_busy=1 rd_busy=0)
# 206   SB busy_s(2,3,4)=001 busy_f(2,3,4)=000 busy_v(2,3,4)=000
# 216 cyc=17 pc=00000010 if_valid=1 inst0=0040a00d d0_valid=1 stall_sb0=1 sb.stall0=1 issue0=1 accept0=0 stall_issue=1 rs1=1(rs1c=0) rs2=4(rs2c=0) rd=0(rdc=0) u1=1 u2=1 urd=0
# 216   manual_stall0=1 (rs1_busy=0 rs2_busy=1 rd_busy=0)
# 216   SB busy_s(2,3,4)=001 busy_f(2,3,4)=000 busy_v(2,3,4)=000
# 216   WB.S rd=4 data=0000000c
# 226 cyc=18 pc=00000010 if_valid=1 inst0=0040a00d d0_valid=1 stall_sb0=0 sb.stall0=0 issue0=1 accept0=1 stall_issue=0 rs1=1(rs1c=0) rs2=4(rs2c=0) rd=0(rdc=0) u1=1 u2=1 urd=0
# 226   manual_stall0=0 (rs1_busy=0 rs2_busy=0 rd_busy=0)
# 236 cyc=19 pc=00000014 if_valid=1 inst0=4021880b d0_valid=1 stall_sb0=0 sb.stall0=0 issue0=1 accept0=1 stall_issue=0 rs1=3(rs1c=0) rs2=2(rs2c=0) rd=16(rdc=0) u1=1 u2=1 urd=1
# 236   manual_stall0=0 (rs1_busy=0 rs2_busy=0 rd_busy=0)
# 246 cyc=20 pc=00000018 if_valid=1 inst0=3100a00d d0_valid=1 stall_sb0=1 sb.stall0=1 issue0=1 accept0=0 stall_issue=1 rs1=1(rs1c=0) rs2=16(rs2c=0) rd=0(rdc=0) u1=1 u2=1 urd=0
# 246   manual_stall0=1 (rs1_busy=0 rs2_busy=1 rd_busy=0)
# 246   SB busy_s(2,3,4)=000 busy_f(2,3,4)=000 busy_v(2,3,4)=000
# 256 cyc=21 pc=00000018 if_valid=1 inst0=3100a00d d0_valid=1 stall_sb0=1 sb.stall0=1 issue0=1 accept0=0 stall_issue=1 rs1=1(rs1c=0) rs2=16(rs2c=0) rd=0(rdc=0) u1=1 u2=1 urd=0
# 256   manual_stall0=1 (rs1_busy=0 rs2_busy=1 rd_busy=0)
# 256   SB busy_s(2,3,4)=000 busy_f(2,3,4)=000 busy_v(2,3,4)=000
# 266 cyc=22 pc=00000018 if_valid=1 inst0=3100a00d d0_valid=1 stall_sb0=1 sb.stall0=1 issue0=1 accept0=0 stall_issue=1 rs1=1(rs1c=0) rs2=16(rs2c=0) rd=0(rdc=0) u1=1 u2=1 urd=0
# 266   manual_stall0=1 (rs1_busy=0 rs2_busy=1 rd_busy=0)
# 266   SB busy_s(2,3,4)=000 busy_f(2,3,4)=000 busy_v(2,3,4)=000
# 276 cyc=23 pc=00000018 if_valid=1 inst0=3100a00d d0_valid=1 stall_sb0=1 sb.stall0=1 issue0=1 accept0=0 stall_issue=1 rs1=1(rs1c=0) rs2=16(rs2c=0) rd=0(rdc=0) u1=1 u2=1 urd=0
# 276   manual_stall0=1 (rs1_busy=0 rs2_busy=1 rd_busy=0)
# 276   SB busy_s(2,3,4)=000 busy_f(2,3,4)=000 busy_v(2,3,4)=000
# 276   WB.S rd=16 data=00000002
# 286 cyc=24 pc=00000018 if_valid=1 inst0=3100a00d d0_valid=1 stall_sb0=0 sb.stall0=0 issue0=1 accept0=1 stall_issue=0 rs1=1(rs1c=0) rs2=16(rs2c=0) rd=0(rdc=0) u1=1 u2=1 urd=0
# 286   manual_stall0=0 (rs1_busy=0 rs2_busy=0 rd_busy=0)
# 296 cyc=25 pc=0000001c if_valid=1 inst0=0031188b d0_valid=1 stall_sb0=0 sb.stall0=0 issue0=1 accept0=1 stall_issue=0 rs1=2(rs1c=0) rs2=3(rs2c=0) rd=17(rdc=0) u1=1 u2=1 urd=1
# 296   manual_stall0=0 (rs1_busy=0 rs2_busy=0 rd_busy=0)
# 306 cyc=26 pc=00000020 if_valid=1 inst0=3110a20d d0_valid=1 stall_sb0=1 sb.stall0=1 issue0=1 accept0=0 stall_issue=1 rs1=1(rs1c=0) rs2=17(rs2c=0) rd=4(rdc=0) u1=1 u2=1 urd=0
# 306   manual_stall0=1 (rs1_busy=0 rs2_busy=1 rd_busy=0)
# 306   SB busy_s(2,3,4)=000 busy_f(2,3,4)=000 busy_v(2,3,4)=000
# 316 cyc=27 pc=00000020 if_valid=1 inst0=3110a20d d0_valid=1 stall_sb0=1 sb.stall0=1 issue0=1 accept0=0 stall_issue=1 rs1=1(rs1c=0) rs2=17(rs2c=0) rd=4(rdc=0) u1=1 u2=1 urd=0
# 316   manual_stall0=1 (rs1_busy=0 rs2_busy=1 rd_busy=0)
# 316   SB busy_s(2,3,4)=000 busy_f(2,3,4)=000 busy_v(2,3,4)=000
# 326 cyc=28 pc=00000020 if_valid=1 inst0=3110a20d d0_valid=1 stall_sb0=1 sb.stall0=1 issue0=1 accept0=0 stall_issue=1 rs1=1(rs1c=0) rs2=17(rs2c=0) rd=4(rdc=0) u1=1 u2=1 urd=0
# 326   manual_stall0=1 (rs1_busy=0 rs2_busy=1 rd_busy=0)
# 326   SB busy_s(2,3,4)=000 busy_f(2,3,4)=000 busy_v(2,3,4)=000
# 336 cyc=29 pc=00000020 if_valid=1 inst0=3110a20d d0_valid=1 stall_sb0=1 sb.stall0=1 issue0=1 accept0=0 stall_issue=1 rs1=1(rs1c=0) rs2=17(rs2c=0) rd=4(rdc=0) u1=1 u2=1 urd=0
# 336   manual_stall0=1 (rs1_busy=0 rs2_busy=1 rd_busy=0)
# 336   SB busy_s(2,3,4)=000 busy_f(2,3,4)=000 busy_v(2,3,4)=000
# 336   WB.S rd=17 data=00000280
# 346 cyc=30 pc=00000020 if_valid=1 inst0=3110a20d d0_valid=1 stall_sb0=0 sb.stall0=0 issue0=1 accept0=1 stall_issue=0 rs1=1(rs1c=0) rs2=17(rs2c=0) rd=4(rdc=0) u1=1 u2=1 urd=0
# 346   manual_stall0=0 (rs1_busy=0 rs2_busy=0 rd_busy=0)
# 356 cyc=31 pc=00000024 if_valid=1 inst0=ff00090b d0_valid=1 stall_sb0=0 sb.stall0=0 issue0=1 accept0=1 stall_issue=0 rs1=0(rs1c=0) rs2=16(rs2c=0) rd=18(rdc=0) u1=1 u2=0 urd=1
# 356   manual_stall0=0 (rs1_busy=0 rs2_busy=0 rd_busy=0)
# 366 cyc=32 pc=00000028 if_valid=1 inst0=0020098b d0_valid=1 stall_sb0=0 sb.stall0=0 issue0=1 accept0=1 stall_issue=0 rs1=0(rs1c=0) rs2=2(rs2c=0) rd=19(rdc=0) u1=1 u2=0 urd=1
# 366   manual_stall0=0 (rs1_busy=0 rs2_busy=0 rd_busy=0)
# 376 cyc=33 pc=0000002c if_valid=1 inst0=41395a0b d0_valid=1 stall_sb0=1 sb.stall0=1 issue0=1 accept0=0 stall_issue=1 rs1=18(rs1c=0) rs2=19(rs2c=0) rd=20(rdc=0) u1=1 u2=1 urd=1
# 376   manual_stall0=1 (rs1_busy=1 rs2_busy=1 rd_busy=0)
# 376   SB busy_s(2,3,4)=000 busy_f(2,3,4)=000 busy_v(2,3,4)=000
# 386 cyc=34 pc=0000002c if_valid=1 inst0=41395a0b d0_valid=1 stall_sb0=1 sb.stall0=1 issue0=1 accept0=0 stall_issue=1 rs1=18(rs1c=0) rs2=19(rs2c=0) rd=20(rdc=0) u1=1 u2=1 urd=1
# 386   manual_stall0=1 (rs1_busy=1 rs2_busy=1 rd_busy=0)
# 386   SB busy_s(2,3,4)=000 busy_f(2,3,4)=000 busy_v(2,3,4)=000
# 396 cyc=35 pc=0000002c if_valid=1 inst0=41395a0b d0_valid=1 stall_sb0=1 sb.stall0=1 issue0=1 accept0=0 stall_issue=1 rs1=18(rs1c=0) rs2=19(rs2c=0) rd=20(rdc=0) u1=1 u2=1 urd=1
# 396   manual_stall0=1 (rs1_busy=1 rs2_busy=1 rd_busy=0)
# 396   SB busy_s(2,3,4)=000 busy_f(2,3,4)=000 busy_v(2,3,4)=000
# 396   WB.S rd=18 data=fffffff0
# 406 cyc=36 pc=0000002c if_valid=1 inst0=41395a0b d0_valid=1 stall_sb0=1 sb.stall0=1 issue0=1 accept0=0 stall_issue=1 rs1=18(rs1c=0) rs2=19(rs2c=0) rd=20(rdc=0) u1=1 u2=1 urd=1
# 406   manual_stall0=1 (rs1_busy=0 rs2_busy=1 rd_busy=0)
# 406   SB busy_s(2,3,4)=000 busy_f(2,3,4)=000 busy_v(2,3,4)=000
# 406   WB.S rd=19 data=00000002
# 416 cyc=37 pc=0000002c if_valid=1 inst0=41395a0b d0_valid=1 stall_sb0=0 sb.stall0=0 issue0=1 accept0=1 stall_issue=0 rs1=18(rs1c=0) rs2=19(rs2c=0) rd=20(rdc=0) u1=1 u2=1 urd=1
# 416   manual_stall0=0 (rs1_busy=0 rs2_busy=0 rd_busy=0)
# 426 cyc=38 pc=00000030 if_valid=1 inst0=3140a40d d0_valid=1 stall_sb0=1 sb.stall0=1 issue0=1 accept0=0 stall_issue=1 rs1=1(rs1c=0) rs2=20(rs2c=0) rd=8(rdc=0) u1=1 u2=1 urd=0
# 426   manual_stall0=1 (rs1_busy=0 rs2_busy=1 rd_busy=0)
# 426   SB busy_s(2,3,4)=000 busy_f(2,3,4)=000 busy_v(2,3,4)=000
# 436 cyc=39 pc=00000030 if_valid=1 inst0=3140a40d d0_valid=1 stall_sb0=1 sb.stall0=1 issue0=1 accept0=0 stall_issue=1 rs1=1(rs1c=0) rs2=20(rs2c=0) rd=8(rdc=0) u1=1 u2=1 urd=0
# 436   manual_stall0=1 (rs1_busy=0 rs2_busy=1 rd_busy=0)
# 436   SB busy_s(2,3,4)=000 busy_f(2,3,4)=000 busy_v(2,3,4)=000
# DEBUG: EX SRA: funct7=0100000 is_sub=1 uses_rs2=1 op_a=fffffff0 op_b=00000002 res=fffffffc
# 945 MEM ST addr=fffff800 wdata=0000000c rd=0
# 975 MEM ST addr=fffffb00 wdata=00000002 rd=0
# 985 MEM ST addr=fffffb04 wdata=00000280 rd=0
# 995 MEM ST addr=fffffb08 wdata=fffffffc rd=0
# 1005 MEM ST addr=fffffb0c wdata=3ffffffc rd=0
# 1035 MEM ST addr=fffffb10 wdata=00000001 rd=0
# 1045 MEM ST addr=fffffb14 wdata=00000000 rd=0
# 1055 MEM ST addr=fffffb18 wdata=00000002 rd=0
# 1065 MEM ST addr=fffffb1c wdata=00000007 rd=0
# 1095 MEM ST addr=fffffb20 wdata=00000005 rd=0
# 1125 MEM LD addr=fffff800 wdata=00000000 rd=5
# 1405 SREG_WB rd=30 data=00000800 src(pend/lsu/fp/valu/alu)=00100 fp_wb(valid/rd/data)=1/30/00000800 wb(valid/rd/res)=1/7/00000005
# 1405 FP->S WB rd=30 data=00000800
# 1405 SREG_WB rd=30 data=00000800 src=00000004 wb_valid=00000001 wb_is_scalar_fp=00000001 wb_f3=00000005 wb_f7=00000008 fp_scalar_valid=00000001
# 1455 SREG_WB rd=31 data=fffff800 src(pend/lsu/fp/valu/alu)=00100 fp_wb(valid/rd/data)=1/31/fffff800 wb(valid/rd/res)=1/4/00000001
# 1455 FP->S WB rd=31 data=fffff800
# 1455 SREG_WB rd=31 data=fffff800 src=00000004 wb_valid=00000001 wb_is_scalar_fp=00000000 wb_f3=00000002 wb_f7=00000004 fp_scalar_valid=00000001
# 1635 MEM ST addr=fffff808 wdata=0000000c rd=0
# 1665 MEM ST addr=fffff884 wdata=00000800 rd=0
# 1675 MEM ST addr=fffff888 wdata=fffff800 rd=0
# 1705 MEM LD addr=fffff810 wdata=00000000 rd=1
# 1715 MEM LD addr=fffff814 wdata=00000000 rd=1
# 1725 MEM LD addr=fffff818 wdata=00000000 rd=1
# 1735 MEM LD addr=fffff81c wdata=00000000 rd=1
# 1795 MEM LD addr=fffff820 wdata=00000000 rd=2
# 1805 MEM LD addr=fffff824 wdata=00000000 rd=2
# DEBUG: busy_v31 became 1 at t=1910 pc=000000e0 inst0=07f08012 if_valid=1
# DEBUG: inst0 fields: opcode=12 rd=0 rs1=1 rs2=31 funct3=0 funct7=03
# 1925 MEM ST addr=fffff830 wdata=0000000b rd=16
# 1935 MEM ST addr=fffff834 wdata=00000016 rd=16
# 1945 MEM ST addr=fffff838 wdata=00000021 rd=16
# 1955 MEM ST addr=fffff83c wdata=0000002c rd=16
# 2545 DEBUG FP16 VADD ISSUE src_a=c4004400b8003800c0004000bc003c00 src_b=3c004400380038004000c00040003c00 lane6(a,b)=4400,4400 lane7(a,b)=c400,3c00
# 2555 DEBUG FP16 VADD WB wb_data=c200480000003c00000000003c004000 lane6(r)=4800 lane7(r)=c200 (prev lane7 a,b=c400,3c00)
# 3306 WB.S (x9) data=0000000f (valuv_valid=1 valuv_rd=9 valuv_is_scalar=1 valuv_data_lo=0000000f)
# 3346 WMB ENQ addr=fffff840 wdata=0000000f wstrb=f
# 3366 WMB DEQ addr=fffff840 wdata=0000000f wstrb=f
# 3375 MEM ST addr=fffff840 wdata=0000000f rd=0
# 3396 ATOM in MEM: mem_addr=fffff830 is_vector=1 is_store=0 funct3(op)=000 rd=16
# 3405 MEM LD addr=fffff830 wdata=0000000a rd=16
# 3415 MEM LD addr=fffff834 wdata=00000000 rd=16
# 3425 MEM LD addr=fffff838 wdata=00000000 rd=16
# 3435 MEM LD addr=fffff83c wdata=00000000 rd=16
# 3445 MEM LD addr=fffff830 wdata=00000000 rd=16
# 3455 MEM LD addr=fffff834 wdata=00000000 rd=16
# 3465 MEM LD addr=fffff838 wdata=00000015 rd=16
# 3475 MEM LD addr=fffff83c wdata=00000015 rd=16
# 3485 MEM ST addr=fffff830 wdata=00000015 rd=16
# 3495 MEM ST addr=fffff834 wdata=0000002a rd=16
# 3505 MEM ST addr=fffff838 wdata=0000003f rd=16
# 3515 MEM ST addr=fffff83c wdata=00000054 rd=16
# 3525 MEM LD addr=fffff830 wdata=3c004000 rd=6
# 3535 MEM LD addr=fffff834 wdata=00000000 rd=6
# 3545 MEM LD addr=fffff838 wdata=00000000 rd=6
# 3555 MEM LD addr=fffff83c wdata=00000000 rd=6
# 3615 MEM ST addr=fffff850 wdata=00000015 rd=16
# 3625 MEM ST addr=fffff854 wdata=0000002a rd=16
# 3635 MEM ST addr=fffff858 wdata=0000003f rd=16
# 3645 MEM ST addr=fffff85c wdata=00000054 rd=16
# 3745 GP_ISSUE is_gfx=0 funct3=000 op_a=0000000c op_b=fffff940
# 4425 GP_ISSUE is_gfx=1 funct3=000 op_a=fffffd00 op_b=00000000
# 4435 GP_ISSUE is_gfx=1 funct3=100 op_a=fffffd40 op_b=00000000
# 4445 GP_ISSUE is_gfx=1 funct3=101 op_a=fffffd80 op_b=00000000
# 4455 TB_MEM_RD addr=fffffd00 idx=320 mem=fffffc00 rd=0
# 4455 MEM LD addr=fffffd00 wdata=00000000 rd=0
# 4465 TB_MEM_RD addr=fffffd04 idx=321 mem=00000020 rd=0
# 4465 GP_ISSUE is_gfx=1 funct3=110 op_a=fffffdc0 op_b=00000000
# 4465 MEM LD addr=fffffd04 wdata=00000000 rd=0
# 4475 TB_MEM_RD addr=fffffd08 idx=322 mem=00000000 rd=0
